{"componentChunkName":"component---src-templates-index-jsx","path":"/","result":{"data":{"authors":{"edges":[{"node":{"uid":"anton","name":"Anton Whalley","image":"https://avatars2.githubusercontent.com/u/130940?s=460&v=4","url":"http://gatsbyjs.org/","bio":""}}]}},"pageContext":{"nodes":[{"node":{"frontmatter":{"title":"Rapidly extend a Fastify app with automated API generation from LoopBack","tags":["programming","nodejs","fastify","loopback"],"cover":"./images/cover.png","date":"2019-07-28","category":"tech","author":"anton"},"fields":{"slug":"/rapidly-extend-a-fastify-app-with-crud-apis-from-loopback"},"excerpt":"Introduction Go straight to the code Today I was working on a project that required extending with 5 new REST endpoints. Each complete with…","timeToRead":8}},{"node":{"frontmatter":{"title":"Debugging Rust with VSCode on FreeBSD","tags":["programming","rust","freebsd"],"cover":"images/debug-rust.png","date":"2018-12-28","category":"tech","author":"anton"},"fields":{"slug":"/debugging-rust-with-vscode-on-freebsd"},"excerpt":"The following is a set of notes for installing VSCode on FreeBSD and getting a debugger up and running in a step by step guide. I thought I…","timeToRead":5}},{"node":{"frontmatter":{"title":"Post Mortem debugging for node.js on FreeBSD","tags":["programming","olly","nodejs","freebsd"],"cover":"./images/post-mortem-freebsd.png","date":"2017-08-15","category":"tech","author":"anton"},"fields":{"slug":"/post-mortem-debugging-for-node-js-on-freebsd"},"excerpt":"Motivation A few months ago I was talking to nomadlogicLA on twitter about managing node.js processes on FreeBSD. The obstacle that…","timeToRead":5}},{"node":{"frontmatter":{"title":"Some notes on vue.js with browserify on bluemix","tags":["programming","nodejs","vuejs"],"cover":"images/browserify-vue.png","date":"2017-04-19","category":"tech","author":"anton"},"fields":{"slug":"/vue-js-with-browserify-on-bluemix"},"excerpt":"Most of my days are spent up to my knees thinking about APIs. But this week I was asked to build a person finder app for work. I thought…","timeToRead":4}},{"node":{"frontmatter":{"title":"Introducing the kore.io Cloud Foundry build pack","tags":["programming","koreio","c"],"cover":"images/koreio-bluemix.jpg","date":"2017-01-07","category":"tech","author":"anton"},"fields":{"slug":"/kore-io-on-bluemix-2"},"excerpt":"Following on from the previous post on modular C APIs for kore.io This post looks at using a Cloud Foundry1 approach to speed up the…","timeToRead":3}},{"node":{"frontmatter":{"title":"Modular C APIs with kore.io and dotc","tags":["programming"],"cover":"images/include.png","date":"2017-01-01","category":"tech","author":"anton"},"fields":{"slug":"/modular-c-apis-with-kore-io-and-dotc"},"excerpt":"Background Most high performance network applications today are using event based approaches. See nginx or libuv for node.js for some in…","timeToRead":4}},{"node":{"frontmatter":{"title":"chromiumify #1","tags":["programming","chromeapp","javascript"],"cover":"https://unsplash.it/1280/500/?random?BoldMage","date":"2016-12-29T15:27:19.000Z","category":"tech","author":"anton"},"fields":{"slug":"/chromiumify-1"},"excerpt":"Time: 30 minutes max if you already have a mobile development environment installed Introduction This is the first in a series of tutorials…","timeToRead":5}},{"node":{"frontmatter":{"title":"chromiumify #2","tags":["programming","chromeapp"],"cover":"https://unsplash.it/1280/500/?random?BoldMage","date":"2016-12-29","category":"tech","author":"anton"},"fields":{"slug":"/chromiumify-2"},"excerpt":"With the latest release of chromiumify you can now publish and install Chrome Apps from NPM. {<1>}node In this tutorial we will create a…","timeToRead":1}},{"node":{"frontmatter":{"title":"Sinopia on Open Indiana","tags":["programming","nodejs"],"cover":"https://unsplash.it/1280/500/?random?BoldMage","date":"2016-12-29","category":"tech","author":"anton"},"fields":{"slug":"/sinopia-on-open-indiana"},"excerpt":"This article is just a quick set of notes that I took while setting up Sinopia on OpenIndiana. It should be useful if you are looking to set…","timeToRead":3}},{"node":{"frontmatter":{"title":"DTrace flamegraphs for FreeBSD and node.js","tags":["programming","freebsd","nodejs","olly"],"cover":"images/dtrace-freebsd-cover.png","date":"2016-12-29","category":"tech","author":"anton"},"fields":{"slug":"/dtrace-flamegraphs-for-freebsd-and-node-js"},"excerpt":"Introduction Recently BSD UNIXes are being acknowledged by the application development community as an interesting operating system to…","timeToRead":3}}],"page":1,"pages":2,"total":11,"limit":10,"next":"/2"}}}