{"componentChunkName":"component---src-templates-index-jsx","path":"/2","result":{"data":{"authors":{"edges":[{"node":{"uid":"anton","name":"Anton Whalley","image":"https://avatars2.githubusercontent.com/u/130940?s=460&v=4","url":"http://gatsbyjs.org/","bio":""}}]}},"pageContext":{"nodes":[{"node":{"frontmatter":{"title":"node.js on Open Indiana","tags":["programming","nodejs"],"cover":"https://unsplash.it/1280/500/?random?BoldMage","date":"2016-12-29","category":"tech","author":"anton"},"fields":{"slug":"/node-js-on-open-indiana"},"excerpt":"Update\nIf you are using OI hipster most of these steps won't apply but some of the unmangling and compile options may be useful…","timeToRead":7}}],"page":2,"pages":2,"total":11,"limit":10,"prev":"/"}}}